DE0_test/simulation/qsim/DE0_test.msim.vcd
$comment
	File created using the following command:
		vcd file DE0_test.msim.vcd -direction
$end
$date
	Thu Dec 07 23:52:36 2023
$end
$version
	ModelSim Version 10.1d
$end
$timescale
	1ps
$end
$scope module DE0_test_vlg_vec_tst $end
$var reg 3 ! BOT [2:0] $end
$var reg 1 " clk $end
$var reg 10 # SW [9:0] $end
$var wire 1 $ HEX [6] $end
$var wire 1 % HEX [5] $end
$var wire 1 & HEX [4] $end
$var wire 1 ' HEX [3] $end
$var wire 1 ( HEX [2] $end
$var wire 1 ) HEX [1] $end
$var wire 1 * HEX [0] $end
$var wire 1 + LED [9] $end
$var wire 1 , LED [8] $end
$var wire 1 - LED [7] $end
$var wire 1 . LED [6] $end
$var wire 1 / LED [5] $end
$var wire 1 0 LED [4] $end
$var wire 1 1 LED [3] $end
$var wire 1 2 LED [2] $end
$var wire 1 3 LED [1] $end
$var wire 1 4 LED [0] $end
$var wire 1 5 sampler $end
$scope module i1 $end
$var wire 1 6 gnd $end
$var wire 1 7 vcc $end
$var wire 1 8 unknown $end
$var tri1 1 9 devclrn $end
$var tri1 1 : devpor $end
$var tri1 1 ; devoe $end
$var wire 1 < Add0~0_combout $end
$var wire 1 = Add0~1 $end
$var wire 1 > Add0~2_combout $end
$var wire 1 ? Add0~3 $end
$var wire 1 @ Add0~4_combout $end
$var wire 1 A Add0~5 $end
$var wire 1 B Add0~6_combout $end
$var wire 1 C Add0~7 $end
$var wire 1 D Add0~8_combout $end
$var wire 1 E Add0~9 $end
$var wire 1 F Add0~10_combout $end
$var wire 1 G Add0~11 $end
$var wire 1 H Add0~12_combout $end
$var wire 1 I Add0~13 $end
$var wire 1 J Add0~14_combout $end
$var wire 1 K Add0~15 $end
$var wire 1 L Add0~16_combout $end
$var wire 1 M Add0~17 $end
$var wire 1 N Add0~18_combout $end
$var wire 1 O Add0~19 $end
$var wire 1 P Add0~20_combout $end
$var wire 1 Q Add0~21 $end
$var wire 1 R Add0~22_combout $end
$var wire 1 S Add0~23 $end
$var wire 1 T Add0~24_combout $end
$var wire 1 U Add0~25 $end
$var wire 1 V Add0~26_combout $end
$var wire 1 W Add0~27 $end
$var wire 1 X Add0~28_combout $end
$var wire 1 Y Add0~29 $end
$var wire 1 Z Add0~30_combout $end
$var wire 1 [ Add0~31 $end
$var wire 1 \ Add0~32_combout $end
$var wire 1 ] Add0~33 $end
$var wire 1 ^ Add0~34_combout $end
$var wire 1 _ Add0~35 $end
$var wire 1 ` Add0~36_combout $end
$var wire 1 a Add0~37 $end
$var wire 1 b Add0~38_combout $end
$var wire 1 c Add0~39 $end
$var wire 1 d Add0~40_combout $end
$var wire 1 e Add0~41 $end
$var wire 1 f Add0~42_combout $end
$var wire 1 g Add0~43 $end
$var wire 1 h Add0~44_combout $end
$var wire 1 i Add0~45 $end
$var wire 1 j Add0~46_combout $end
$var wire 1 k Add0~47 $end
$var wire 1 l Add0~48_combout $end
$var wire 1 m Add0~49 $end
$var wire 1 n Add0~50_combout $end
$var wire 1 o Equal0~0_combout $end
$var wire 1 p Equal0~1_combout $end
$var wire 1 q Equal0~2_combout $end
$var wire 1 r Equal0~3_combout $end
$var wire 1 s Equal0~4_combout $end
$var wire 1 t Equal0~5_combout $end
$var wire 1 u Equal0~6_combout $end
$var wire 1 v Equal0~7_combout $end
$var wire 1 w cnt~10_combout $end
$var wire 1 x cnt~11_combout $end
$var wire 1 y cnt~12_combout $end
$var wire 1 z cnt~13_combout $end
$var wire 1 { cnt~14_combout $end
$var wire 1 | cnt~15_combout $end
$var wire 1 } cnt~16_combout $end
$var wire 1 ~ cnt~17_combout $end
$var wire 1 !! cnt~18_combout $end
$var wire 1 "! cnt~19_combout $end
$var wire 1 #! cnt~20_combout $end
$var wire 1 $! cnt~21_combout $end
$var wire 1 %! clk~input_o $end
$var wire 1 &! cnt[25]~clkctrl_outclk $end
$var wire 1 '! clk~inputclkctrl_outclk $end
$var wire 1 (! LED[0]~output_o $end
$var wire 1 )! LED[1]~output_o $end
$var wire 1 *! LED[2]~output_o $end
$var wire 1 +! LED[3]~output_o $end
$var wire 1 ,! LED[4]~output_o $end
$var wire 1 -! LED[5]~output_o $end
$var wire 1 .! LED[6]~output_o $end
$var wire 1 /! LED[7]~output_o $end
$var wire 1 0! LED[8]~output_o $end
$var wire 1 1! LED[9]~output_o $end
$var wire 1 2! HEX[0]~output_o $end
$var wire 1 3! HEX[1]~output_o $end
$var wire 1 4! HEX[2]~output_o $end
$var wire 1 5! HEX[3]~output_o $end
$var wire 1 6! HEX[4]~output_o $end
$var wire 1 7! HEX[5]~output_o $end
$var wire 1 8! HEX[6]~output_o $end
$var wire 1 9! BOT[1]~input_o $end
$var wire 1 :! BOT[2]~input_o $end
$var wire 1 ;! BOT[0]~input_o $end
$var wire 1 <! SW[0]~input_o $end
$var wire 1 =! LED~0_combout $end
$var wire 1 >! SW[1]~input_o $end
$var wire 1 ?! LED~1_combout $end
$var wire 1 @! SW[2]~input_o $end
$var wire 1 A! LED~2_combout $end
$var wire 1 B! SW[3]~input_o $end
$var wire 1 C! LED~3_combout $end
$var wire 1 D! SW[4]~input_o $end
$var wire 1 E! LED~4_combout $end
$var wire 1 F! SW[5]~input_o $end
$var wire 1 G! LED~5_combout $end
$var wire 1 H! SW[6]~input_o $end
$var wire 1 I! LED~6_combout $end
$var wire 1 J! SW[7]~input_o $end
$var wire 1 K! LED~7_combout $end
$var wire 1 L! SW[8]~input_o $end
$var wire 1 M! LED~8_combout $end
$var wire 1 N! SW[9]~input_o $end
$var wire 1 O! LED~9_combout $end
$var wire 1 P! tmp[0]~3_combout $end
$var wire 1 Q! tmp[2]~1_combout $end
$var wire 1 R! tmp~2_combout $end
$var wire 1 S! tmp~0_combout $end
$var wire 1 T! HEX~19_combout $end
$var wire 1 U! HEX~17_combout $end
$var wire 1 V! HEX~20_combout $end
$var wire 1 W! HEX~18_combout $end
$var wire 1 X! HEX~21_combout $end
$var wire 1 Y! HEX~23_combout $end
$var wire 1 Z! HEX~22_combout $end
$var wire 1 [! cnt [25] $end
$var wire 1 \! cnt [24] $end
$var wire 1 ]! cnt [23] $end
$var wire 1 ^! cnt [22] $end
$var wire 1 _! cnt [21] $end
$var wire 1 `! cnt [20] $end
$var wire 1 a! cnt [19] $end
$var wire 1 b! cnt [18] $end
$var wire 1 c! cnt [17] $end
$var wire 1 d! cnt [16] $end
$var wire 1 e! cnt [15] $end
$var wire 1 f! cnt [14] $end
$var wire 1 g! cnt [13] $end
$var wire 1 h! cnt [12] $end
$var wire 1 i! cnt [11] $end
$var wire 1 j! cnt [10] $end
$var wire 1 k! cnt [9] $end
$var wire 1 l! cnt [8] $end
$var wire 1 m! cnt [7] $end
$var wire 1 n! cnt [6] $end
$var wire 1 o! cnt [5] $end
$var wire 1 p! cnt [4] $end
$var wire 1 q! cnt [3] $end
$var wire 1 r! cnt [2] $end
$var wire 1 s! cnt [1] $end
$var wire 1 t! cnt [0] $end
$var wire 1 u! tmp [3] $end
$var wire 1 v! tmp [2] $end
$var wire 1 w! tmp [1] $end
$var wire 1 x! tmp [0] $end
$upscope $end
$upscope $end
$enddefinitions $end
#0
$dumpvars
b0 !
0"
b0 #
0*
0)
0(
0'
0&
0%
1$
14
13
12
11
10
1/
1.
1-
1,
1+
x5
06
17
x8
19
1:
1;
1<
0=
0>
1?
0@
0A
0B
1C
0D
0E
0F
1G
0H
0I
0J
1K
0L
0M
0N
1O
0P
0Q
0R
1S
0T
0U
0V
1W
0X
0Y
0Z
1[
0\
0]
0^
1_
0`
0a
0b
1c
0d
0e
0f
1g
0h
0i
0j
1k
0l
0m
0n
0o
0p
0q
0r
0s
1t
0u
0v
0w
0x
0y
0z
0{
0|
0}
0~
0!!
0"!
0#!
0$!
0%!
0&!
0'!
1(!
1)!
1*!
1+!
1,!
1-!
1.!
1/!
10!
11!
02!
03!
04!
05!
06!
07!
18!
09!
0:!
0;!
0<!
1=!
0>!
1?!
0@!
1A!
0B!
1C!
0D!
1E!
0F!
1G!
0H!
1I!
0J!
1K!
0L!
1M!
0N!
1O!
1P!
0Q!
0R!
0S!
0T!
0U!
1V!
0W!
0X!
1Y!
1Z!
0t!
0s!
0r!
0q!
0p!
0o!
0n!
0m!
0l!
0k!
0j!
0i!
0h!
0g!
0f!
0e!
0d!
0c!
0b!
0a!
0`!
0_!
0^!
0]!
0\!
0[!
0x!
0w!
0v!
0u!
$end
#10000
1"
1%!
1'!
05
1t!
1=
0<
1>
#20000
0"
0%!
0'!
15
#30000
1"
1%!
1'!
05
0t!
1s!
0=
1<
0?
0>
1?
1>
1@
0@
#40000
0"
0%!
0'!
15
#50000
1"
1%!
1'!
05
1t!
1=
0<
0?
0>
1@
#60000
0"
0%!
0'!
15
#70000
1"
1%!
1'!
05
0t!
0s!
1r!
0=
1<
1?
1>
1A
0@
0>
0A
1@
1B
0B
#80000
0"
0%!
0'!
15
#90000
1"
1%!
1'!
05
1t!
1=
0<
1>
#100000
0"
0%!
0'!
15
#110000
1"
1%!
1'!
05
0t!
1s!
0=
1<
0?
0>
1?
1>
1A
0@
0A
1@
1B
0B
#120000
0"
0%!
0'!
15
#130000
1"
1%!
1'!
05
1t!
1=
0<
0?
0>
1A
0@
1B
#140000
0"
0%!
0'!
15
#150000
1"
1%!
1'!
05
0t!
0s!
0r!
1q!
0=
1<
1?
1>
0A
1@
0C
0B
0>
0@
1C
1B
1D
0D
#160000
0"
0%!
0'!
15
#170000
1"
1%!
1'!
05
1t!
1=
0<
1>
#180000
0"
0%!
0'!
15
#190000
1"
1%!
1'!
05
0t!
1s!
0=
1<
0?
0>
1?
1>
1@
0@
#200000
0"
0%!
0'!
15
#210000
1"
1%!
1'!
05
1t!
1=
0<
0?
0>
1@
#220000
0"
0%!
0'!
15
#230000
1"
1%!
1'!
05
0t!
0s!
1r!
0=
1<
1?
1>
1A
0@
0>
0A
1@
0C
0B
1C
1B
1D
0D
#240000
0"
0%!
0'!
15
#250000
1"
1%!
1'!
05
1t!
1=
0<
1>
#260000
0"
0%!
0'!
15
#270000
1"
1%!
1'!
05
0t!
1s!
0=
1<
0?
0>
1?
1>
1A
0@
0A
1@
0C
0B
1C
1B
1D
0D
#280000
0"
0%!
0'!
15
#290000
1"
1%!
1'!
05
1t!
1=
0<
0?
0>
1A
0@
0C
0B
1D
#300000
0"
0%!
0'!
15
#310000
1"
1%!
1'!
05
0t!
0s!
0r!
0q!
1p!
0=
1<
1?
1>
0A
1@
1C
1B
1E
0D
0>
0@
0B
0E
1D
1F
0F
#320000
0"
0%!
0'!
15
#330000
1"
1%!
1'!
05
1t!
1=
0<
1>
#340000
0"
0%!
0'!
15
#350000
1"
1%!
1'!
05
0t!
1s!
0=
1<
0?
0>
1?
1>
1@
0@
#360000
0"
0%!
0'!
15
#370000
1"
1%!
1'!
05
1t!
1=
0<
0?
0>
1@
#380000
0"
0%!
0'!
15
#390000
1"
1%!
1'!
05
0t!
0s!
1r!
0=
1<
1?
1>
1A
0@
0>
0A
1@
1B
0B
#400000
0"
0%!
0'!
15
#410000
1"
1%!
1'!
05
1t!
1=
0<
1>
#420000
0"
0%!
0'!
15
#430000
1"
1%!
1'!
05
0t!
1s!
0=
1<
0?
0>
1?
1>
1A
0@
0A
1@
1B
0B
#440000
0"
0%!
0'!
15
#450000
1"
1%!
1'!
05
1t!
1=
0<
0?
0>
1A
0@
1B
#460000
0"
0%!
0'!
15
#470000
1"
1%!
1'!
05
0t!
0s!
0r!
1q!
0=
1<
1?
1>
0A
1@
0C
0B
0>
0@
1C
1B
1E
0D
0E
1D
1F
0F
#480000
0"
0%!
0'!
15
#490000
1"
1%!
1'!
05
1t!
1=
0<
1>
#500000
0"
0%!
0'!
15
#510000
1"
1%!
1'!
05
0t!
1s!
0=
1<
0?
0>
1?
1>
1@
0@
#520000
0"
0%!
0'!
15
#530000
1"
1%!
1'!
05
1t!
1=
0<
0?
0>
1@
#540000
0"
0%!
0'!
15
#550000
1"
1%!
1'!
05
0t!
0s!
1r!
0=
1<
1?
1>
1A
0@
0>
0A
1@
0C
0B
1C
1B
1E
0D
0E
1D
1F
0F
#560000
0"
0%!
0'!
15
#570000
1"
1%!
1'!
05
1t!
1=
0<
1>
#580000
0"
0%!
0'!
15
#590000
1"
1%!
1'!
05
0t!
1s!
0=
1<
0?
0>
1?
1>
1A
0@
0A
1@
0C
0B
1C
1B
1E
0D
0E
1D
1F
0F
#600000
0"
0%!
0'!
15
#610000
1"
1%!
1'!
05
1t!
1=
0<
0?
0>
1A
0@
0C
0B
1E
0D
1F
#620000
0"
0%!
0'!
15
#630000
1"
1%!
1'!
05
0t!
0s!
0r!
0q!
0p!
1o!
0=
1<
1?
1>
0A
1@
1C
1B
0E
1D
0G
0F
0>
0@
0B
0D
1G
1F
1H
0H
#640000
0"
0%!
0'!
15
#650000
1"
1%!
1'!
05
1t!
1=
0<
1>
#660000
0"
0%!
0'!
15
#670000
1"
1%!
1'!
05
0t!
1s!
0=
1<
0?
0>
1?
1>
1@
0@
#680000
0"
0%!
0'!
15
#690000
1"
1%!
1'!
05
1t!
1=
0<
0?
0>
1@
#700000
0"
0%!
0'!
15
#710000
1"
1%!
1'!
05
0t!
0s!
1r!
0=
1<
1?
1>
1A
0@
0>
0A
1@
1B
0B
#720000
0"
0%!
0'!
15
#730000
1"
1%!
1'!
05
1t!
1=
0<
1>
#740000
0"
0%!
0'!
15
#750000
1"
1%!
1'!
05
0t!
1s!
0=
1<
0?
0>
1?
1>
1A
0@
0A
1@
1B
0B
#760000
0"
0%!
0'!
15
#770000
1"
1%!
1'!
05
1t!
1=
0<
0?
0>
1A
0@
1B
#780000
0"
0%!
0'!
15
#790000
1"
1%!
1'!
05
0t!
0s!
0r!
1q!
0=
1<
1?
1>
0A
1@
0C
0B
0>
0@
1C
1B
1D
0D
#800000
0"
0%!
0'!
15
#810000
1"
1%!
1'!
05
1t!
1=
0<
1>
#820000
0"
0%!
0'!
15
#830000
1"
1%!
1'!
05
0t!
1s!
0=
1<
0?
0>
1?
1>
1@
0@
#840000
0"
0%!
0'!
15
#850000
1"
1%!
1'!
05
1t!
1=
0<
0?
0>
1@
#860000
0"
0%!
0'!
15
#870000
1"
1%!
1'!
05
0t!
0s!
1r!
0=
1<
1?
1>
1A
0@
0>
0A
1@
0C
0B
1C
1B
1D
0D
#880000
0"
0%!
0'!
15
#890000
1"
1%!
1'!
05
1t!
1=
0<
1>
#900000
0"
0%!
0'!
15
#910000
1"
1%!
1'!
05
0t!
1s!
0=
1<
0?
0>
1?
1>
1A
0@
0A
1@
0C
0B
1C
1B
1D
0D
#920000
0"
0%!
0'!
15
#930000
1"
1%!
1'!
05
1t!
1=
0<
0?
0>
1A
0@
0C
0B
1D
#940000
0"
0%!
0'!
15
#950000
1"
1%!
1'!
05
0t!
0s!
0r!
0q!
1p!
0=
1<
1?
1>
0A
1@
1C
1B
1E
0D
0>
0@
0B
0E
1D
0G
0F
1G
1F
1H
0H
#960000
0"
0%!
0'!
15
#970000
1"
1%!
1'!
05
1t!
1=
0<
1>
#980000
0"
0%!
0'!
15
#990000
1"
1%!
1'!
05
0t!
1s!
0=
1<
0?
0>
1?
1>
1@
0@
