vhdl/simulation/qsim/vhdl.msim.vcd
$comment
	File created using the following command:
		vcd file vhdl.msim.vcd -direction
$end
$date
	Mon Oct 23 01:45:37 2023
$end
$version
	ModelSim Version 10.1d
$end
$timescale
	1ps
$end
$scope module vhdl_vlg_vec_tst $end
$var reg 1 ! clk $end
$var reg 1 " rst $end
$var wire 1 # q [7] $end
$var wire 1 $ q [6] $end
$var wire 1 % q [5] $end
$var wire 1 & q [4] $end
$var wire 1 ' q [3] $end
$var wire 1 ( q [2] $end
$var wire 1 ) q [1] $end
$var wire 1 * q [0] $end
$var wire 1 + sampler $end
$scope module i1 $end
$var wire 1 , gnd $end
$var wire 1 - vcc $end
$var wire 1 . unknown $end
$var tri1 1 / devclrn $end
$var tri1 1 0 devpor $end
$var tri1 1 1 devoe $end
$var wire 1 2 q[0]~output_o $end
$var wire 1 3 q[1]~output_o $end
$var wire 1 4 q[2]~output_o $end
$var wire 1 5 q[3]~output_o $end
$var wire 1 6 q[4]~output_o $end
$var wire 1 7 q[5]~output_o $end
$var wire 1 8 q[6]~output_o $end
$var wire 1 9 q[7]~output_o $end
$var wire 1 : clk~input_o $end
$var wire 1 ; clk~inputclkctrl_outclk $end
$var wire 1 < u0|tmp~7_combout $end
$var wire 1 = rst~input_o $end
$var wire 1 > rst~inputclkctrl_outclk $end
$var wire 1 ? u0|tmp~6_combout $end
$var wire 1 @ u0|tmp~4_combout $end
$var wire 1 A u0|tmp~5_combout $end
$var wire 1 B u0|tmp~3_combout $end
$var wire 1 C u0|Equal0~0_combout $end
$var wire 1 D u0|Equal0~1_combout $end
$var wire 1 E u0|tmp[0]~0_combout $end
$var wire 1 F u0|up~feeder_combout $end
$var wire 1 G u0|up~q $end
$var wire 1 H u0|tmp~2_combout $end
$var wire 1 I u0|tmp~1_combout $end
$var wire 1 J u0|tmp~8_combout $end
$var wire 1 K u0|tmp~9_combout $end
$var wire 1 L u0|tmp [7] $end
$var wire 1 M u0|tmp [6] $end
$var wire 1 N u0|tmp [5] $end
$var wire 1 O u0|tmp [4] $end
$var wire 1 P u0|tmp [3] $end
$var wire 1 Q u0|tmp [2] $end
$var wire 1 R u0|tmp [1] $end
$var wire 1 S u0|tmp [0] $end
$upscope $end
$upscope $end
$enddefinitions $end
#0
$dumpvars
0!
1"
0*
0)
0(
0'
0&
0%
0$
1#
x+
0,
1-
x.
1/
10
11
02
03
04
05
06
07
08
19
0:
0;
1<
1=
1>
0?
0@
0A
0B
1C
1D
0E
0F
0G
0H
0I
0J
1K
0S
0R
0Q
0P
0O
0N
0M
0L
$end
#10000
1!
1:
1;
0+
1L
1M
0<
0C
1?
09
18
0#
1$
0D
#20000
0!
0:
0;
1+
#30000
1!
1:
1;
0+
1N
0M
1A
1C
0?
17
08
1%
0$
#40000
0!
0:
0;
1+
#50000
1!
1:
1;
0+
1O
0N
0C
1@
1D
0A
16
07
1&
0%
0D
#60000
0!
0:
0;
1+
#70000
1!
1:
1;
0+
0O
1P
1C
0@
1B
06
15
0&
1'
#80000
0!
0:
0;
1+
#90000
1!
1:
1;
0+
1Q
0P
1H
0C
1D
0B
14
05
1(
0'
0D
#100000
0!
0:
0;
1+
#110000
1!
1:
1;
0+
1R
0Q
1I
0H
1C
13
04
1)
0(
#120000
0!
0:
0;
1+
#130000
1!
1:
1;
0+
1S
0R
1J
0I
1D
12
03
1*
0)
0K
0J
1E
1K
1H
1F
#140000
0!
0:
0;
1+
#150000
1!
1:
1;
0+
1G
0S
1R
0H
1B
0D
02
13
0*
1)
#160000
0!
0:
0;
1+
#170000
1!
1:
1;
0+
0R
1Q
1D
0B
0C
1@
03
14
0)
1(
0D
#180000
0!
0:
0;
1+
#190000
1!
1:
1;
0+
0Q
1P
1C
0@
1A
04
15
0(
1'
#200000
0!
0:
0;
1+
#210000
1!
1:
1;
0+
1O
0P
0C
1?
1D
0A
16
05
1&
0'
0D
#220000
0!
0:
0;
1+
#230000
1!
1:
1;
0+
0O
1N
1C
0?
1<
06
17
0&
1%
#240000
0!
0:
0;
1+
#250000
1!
1:
1;
0+
0N
1M
1D
0<
0K
0C
07
18
0%
1$
0D
#260000
0!
0:
0;
1+
#270000
1!
1:
1;
0+
0L
0M
1I
1K
1C
19
08
1#
0$
1D
0E
0I
0F
1<
#280000
0!
0:
0;
1+
#290000
1!
1:
1;
0+
1L
0G
1M
0<
1?
0C
09
18
0#
1$
0D
#300000
0!
0:
0;
1+
#310000
1!
1:
1;
0+
1N
0M
1A
1C
0?
17
08
1%
0$
#320000
0!
0:
0;
1+
#330000
1!
1:
1;
0+
1O
0N
0C
1@
1D
0A
16
07
1&
0%
0D
#340000
0!
0:
0;
1+
#350000
1!
1:
1;
0+
0O
1P
1C
0@
1B
06
15
0&
1'
#360000
0!
0:
0;
1+
#370000
1!
1:
1;
0+
1Q
0P
1H
0C
1D
0B
14
05
1(
0'
0D
#380000
0!
0:
0;
1+
#390000
1!
1:
1;
0+
1R
0Q
1I
0H
1C
13
04
1)
0(
#400000
0!
0:
0;
1+
#410000
1!
1:
1;
0+
1S
0R
1J
0I
1D
12
03
1*
0)
0K
0J
1E
1K
1H
1F
#420000
0!
0:
0;
1+
#430000
1!
1:
1;
0+
1G
0S
1R
0H
1B
0D
02
13
0*
1)
#440000
0!
0:
0;
1+
#450000
1!
1:
1;
0+
0R
1Q
1D
0B
0C
1@
03
14
0)
1(
0D
#460000
0!
0:
0;
1+
#470000
1!
1:
1;
0+
0Q
1P
1C
0@
1A
04
15
0(
1'
#480000
0!
0:
0;
1+
#490000
1!
1:
1;
0+
1O
0P
0C
1?
1D
0A
16
05
1&
0'
0D
#500000
0!
0:
0;
1+
#510000
1!
1:
1;
0+
0O
1N
1C
0?
1<
06
17
0&
1%
#520000
0!
0:
0;
1+
#530000
1!
1:
1;
0+
0N
1M
1D
0<
0K
0C
07
18
0%
1$
0D
#540000
0!
0:
0;
1+
#550000
1!
1:
1;
0+
0L
0M
1I
1K
1C
19
08
1#
0$
1D
0E
0I
0F
1<
#560000
0!
0:
0;
1+
#570000
1!
1:
1;
0+
1L
0G
1M
0<
1?
0C
09
18
0#
1$
0D
#580000
0!
0:
0;
1+
#590000
1!
1:
1;
0+
1N
0M
1A
1C
0?
17
08
1%
0$
#600000
0!
0:
0;
1+
#610000
1!
1:
1;
0+
1O
0N
0C
1@
1D
0A
16
07
1&
0%
0D
#620000
0!
0:
0;
1+
#630000
1!
1:
1;
0+
0O
1P
1C
0@
1B
06
15
0&
1'
#640000
0!
0:
0;
1+
#650000
1!
1:
1;
0+
1Q
0P
1H
0C
1D
0B
14
05
1(
0'
0D
#660000
0!
0:
0;
1+
#670000
1!
1:
1;
0+
1R
0Q
1I
0H
1C
13
04
1)
0(
#680000
0!
0:
0;
1+
#690000
1!
1:
1;
0+
1S
0R
1J
0I
1D
12
03
1*
0)
0K
0J
1E
1K
1H
1F
#700000
0!
0:
0;
1+
#710000
1!
1:
1;
0+
1G
0S
1R
0H
1B
0D
02
13
0*
1)
#720000
0!
0:
0;
1+
#730000
1!
1:
1;
0+
0R
1Q
1D
0B
0C
1@
03
14
0)
1(
0D
#740000
0!
0:
0;
1+
#750000
1!
1:
1;
0+
0Q
1P
1C
0@
1A
04
15
0(
1'
#760000
0!
0:
0;
1+
#770000
1!
1:
1;
0+
1O
0P
0C
1?
1D
0A
16
05
1&
0'
0D
#780000
0!
0:
0;
1+
#790000
1!
1:
1;
0+
0O
1N
1C
0?
1<
06
17
0&
1%
#800000
0!
0:
0;
1+
#810000
1!
1:
1;
0+
0N
1M
1D
0<
0K
0C
07
18
0%
1$
0D
#820000
0!
0:
0;
1+
#830000
1!
1:
1;
0+
0L
0M
1I
1K
1C
19
08
1#
0$
1D
0E
0I
0F
1<
#840000
0!
0:
0;
1+
#850000
1!
1:
1;
0+
1L
0G
1M
0<
1?
0C
09
18
0#
1$
0D
#860000
0!
0:
0;
1+
#870000
1!
1:
1;
0+
1N
0M
1A
1C
0?
17
08
1%
0$
#880000
0!
0:
0;
1+
#890000
1!
1:
1;
0+
1O
0N
0C
1@
1D
0A
16
07
1&
0%
0D
#900000
0!
0:
0;
1+
#910000
1!
1:
1;
0+
0O
1P
1C
0@
1B
06
15
0&
1'
#920000
0!
0:
0;
1+
#930000
1!
1:
1;
0+
1Q
0P
1H
0C
1D
0B
14
05
1(
0'
0D
#940000
0!
0:
0;
1+
#950000
1!
1:
1;
0+
1R
0Q
1I
0H
1C
13
04
1)
0(
#960000
0!
0:
0;
1+
#970000
1!
1:
1;
0+
1S
0R
1J
0I
1D
12
03
1*
0)
0K
0J
1E
1K
1H
1F
#980000
0!
0:
0;
1+
#990000
1!
1:
1;
0+
1G
0S
1R
0H
1B
0D
02
13
0*
1)
