vhdl/simulation/qsim/vhdl.msim.vcd
$comment
	File created using the following command:
		vcd file vhdl.msim.vcd -direction
$end
$date
	Fri Oct 13 03:10:32 2023
$end
$version
	ModelSim Version 10.1d
$end
$timescale
	1ps
$end
$scope module vhdl_vlg_vec_tst $end
$var reg 1 ! clk $end
$var reg 1 " reset $end
$var reg 1 # up_down $end
$var wire 1 $ alarm $end
$var wire 1 % q [4] $end
$var wire 1 & q [3] $end
$var wire 1 ' q [2] $end
$var wire 1 ( q [1] $end
$var wire 1 ) q [0] $end
$var wire 1 * sampler $end
$scope module i1 $end
$var wire 1 + gnd $end
$var wire 1 , vcc $end
$var wire 1 - unknown $end
$var tri1 1 . devclrn $end
$var tri1 1 / devpor $end
$var tri1 1 0 devoe $end
$var wire 1 1 q[0]~output_o $end
$var wire 1 2 q[1]~output_o $end
$var wire 1 3 q[2]~output_o $end
$var wire 1 4 q[3]~output_o $end
$var wire 1 5 q[4]~output_o $end
$var wire 1 6 alarm~output_o $end
$var wire 1 7 clk~input_o $end
$var wire 1 8 clk~inputclkctrl_outclk $end
$var wire 1 9 u0|Add0~0_combout $end
$var wire 1 : up_down~input_o $end
$var wire 1 ; u0|Add1~0_combout $end
$var wire 1 < u0|Add0~2_combout $end
$var wire 1 = reset~input_o $end
$var wire 1 > reset~inputclkctrl_outclk $end
$var wire 1 ? u0|Add1~1 $end
$var wire 1 @ u0|Add1~2_combout $end
$var wire 1 A u0|Add0~1 $end
$var wire 1 B u0|Add0~3_combout $end
$var wire 1 C u0|cnt[1]~10_combout $end
$var wire 1 D u0|Add1~3 $end
$var wire 1 E u0|Add1~5 $end
$var wire 1 F u0|Add1~6_combout $end
$var wire 1 G u0|Add0~4 $end
$var wire 1 H u0|Add0~6 $end
$var wire 1 I u0|Add0~8_combout $end
$var wire 1 J u0|cnt[3]~13_combout $end
$var wire 1 K u0|cnt[3]~14_combout $end
$var wire 1 L u0|Add0~9 $end
$var wire 1 M u0|Add0~10_combout $end
$var wire 1 N u0|cnt~9_combout $end
$var wire 1 O u0|Equal1~0_combout $end
$var wire 1 P u0|Add1~7 $end
$var wire 1 Q u0|Add1~8_combout $end
$var wire 1 R u0|cnt[4]~15_combout $end
$var wire 1 S u0|cnt[4]~16_combout $end
$var wire 1 T u0|cnt[4]~17_combout $end
$var wire 1 U u0|Equal0~4_combout $end
$var wire 1 V u0|Add1~4_combout $end
$var wire 1 W u0|Add0~5_combout $end
$var wire 1 X u0|Add0~7_combout $end
$var wire 1 Y u0|Equal0~5_combout $end
$var wire 1 Z u0|cnt[4]~11_combout $end
$var wire 1 [ u0|cnt[1]~12_combout $end
$var wire 1 \ u0|LessThan3~0_combout $end
$var wire 1 ] u0|cnt~19_combout $end
$var wire 1 ^ u0|cnt~20_combout $end
$var wire 1 _ u0|cnt~18_combout $end
$var wire 1 ` u0|Equal1~1_combout $end
$var wire 1 a u0|a~0_combout $end
$var wire 1 b u0|a~1_combout $end
$var wire 1 c u0|a~q $end
$var wire 1 d u0|cnt [4] $end
$var wire 1 e u0|cnt [3] $end
$var wire 1 f u0|cnt [2] $end
$var wire 1 g u0|cnt [1] $end
$var wire 1 h u0|cnt [0] $end
$upscope $end
$upscope $end
$enddefinitions $end
#0
$dumpvars
0!
1"
0#
0$
1)
0(
0'
0&
0%
x*
0+
1,
x-
1.
1/
10
11
02
03
04
05
06
07
08
09
0:
0;
1<
1=
1>
1?
0@
1A
1B
1C
0D
1E
0F
1G
0H
0I
0J
0K
1L
0M
0N
0O
0P
0Q
0R
0S
0T
0U
0V
0W
0X
0Y
1Z
1[
1\
0]
0^
1_
0`
0a
0b
0c
0h
0g
0f
0e
0d
$end
#10000
1!
17
18
0*
1h
1g
0?
1;
0A
19
0G
0B
1@
01
12
0)
1(
0@
0<
1G
1B
1W
0C
1C
0W
1X
0[
1[
0X
#20000
0!
07
08
1*
#30000
1!
17
18
0*
0h
1?
0;
1A
09
11
1)
1@
1<
0G
0B
0C
1W
0[
1X
#40000
0!
07
08
1*
#50000
1!
17
18
0*
1h
0g
1f
0?
1;
0A
19
1O
1G
1B
0@
1H
0W
1V
01
02
13
0)
0(
1'
1D
1@
0<
0B
0H
1W
1C
1I
0X
0V
0C
0I
1X
1[
1J
0[
0J
1K
0K
#60000
0!
07
08
1*
#70000
1!
17
18
0*
0h
1`
0\
1?
0;
1A
09
11
1)
0D
0@
1<
1B
1V
1C
1[
#80000
0!
07
08
1*
#90000
1!
17
18
0*
1h
1g
0`
0?
1;
0A
19
0O
0G
0B
1@
01
12
0)
1(
0@
0<
1G
1B
1H
0W
0C
1C
0H
1W
1I
0X
0[
1[
0I
1X
1J
0J
1K
0K
#100000
0!
07
08
1*
#110000
1!
17
18
0*
0h
1?
0;
1A
09
11
1)
1@
1<
0G
0B
0C
1H
0W
0[
1I
0X
1J
1K
#120000
0!
07
08
1*
#130000
1!
17
18
0*
1h
0g
0f
1e
1]
0?
1;
0A
19
1G
1B
0@
0H
1W
0V
0L
0I
1F
01
02
03
14
0)
0(
0'
1&
1D
1@
0<
0B
0W
1C
1L
1I
1X
1M
0J
0E
1V
0C
0X
1[
0M
1J
1T
0K
0F
0[
0T
1K
#140000
0!
07
08
1*
#150000
1!
17
18
0*
0h
0]
1?
0;
1A
09
11
1)
0D
0@
1<
1B
1E
0V
1C
1F
1[
#160000
0!
07
08
1*
#170000
1!
17
18
0*
1h
1g
0?
1;
0A
19
0G
0B
1@
01
12
0)
1(
0@
0<
1G
1B
1W
0C
1C
0W
1X
0[
1[
0X
#180000
0!
07
08
1*
#190000
1!
17
18
0*
0h
1?
0;
1A
09
11
1)
1@
1<
0G
0B
0C
1W
0[
1X
#200000
0!
07
08
1*
#210000
1!
17
18
0*
1h
0g
1f
0?
1;
0A
19
1G
1B
0@
1H
0W
1V
01
02
13
0)
0(
1'
1D
1@
0<
0B
0H
1W
1C
0L
0I
0X
0V
0C
1L
1I
1X
1[
1M
0J
0[
0M
1J
1T
0K
0T
1K
#220000
0!
07
08
1*
#230000
1!
17
18
0*
0h
1?
0;
1A
09
11
1)
0D
0@
1<
1B
1V
1C
1[
#240000
1#
0!
1:
07
08
1*
0C
0[
#250000
1!
17
18
0*
1h
0?
1;
0A
19
01
0)
1D
1@
0<
0B
0V
1C
0X
1[
#260000
0!
07
08
1*
#270000
1!
17
18
0*
0h
1g
0f
1?
0;
1A
09
1B
0D
0@
0W
0E
1V
11
12
03
1)
1(
0'
1@
1<
0G
0B
0C
1E
0V
1X
0F
1C
1W
0[
1F
0X
0J
1[
1J
0K
1K
#280000
0!
07
08
1*
#290000
1!
17
18
0*
1h
0?
1;
0A
19
01
0)
0@
0<
1G
1B
0C
0W
0[
#300000
0!
07
08
1*
#310000
1!
17
18
0*
0h
0g
1?
0;
1A
09
0B
1D
1@
11
02
1)
0(
0D
0@
1<
1B
1C
0E
1V
1E
0V
0C
1[
0F
1X
1F
0X
0[
0J
1J
0K
1K
#320000
0!
07
08
1*
#330000
1!
17
18
0*
1h
1]
0?
1;
0A
19
01
0)
1D
1@
0<
0B
0E
1V
1C
0F
1X
1[
0J
0K
#340000
0!
07
08
1*
#350000
1!
17
18
0*
0h
1g
1f
0e
0]
1?
0;
1A
09
1B
0D
0@
1W
1E
0V
0I
1P
1F
11
12
13
04
1)
1(
1'
0&
1@
1<
0G
0B
0C
1V
0X
0P
0F
1J
1Q
1C
1H
0W
0[
1X
0Q
0J
1K
1R
1[
1I
0R
0K
1S
0S
1T
0T
#360000
0!
07
08
1*
#370000
1!
17
18
0*
1h
0?
1;
0A
19
01
0)
0@
0<
1G
1B
0C
0H
1W
0[
0I
#380000
0!
07
08
1*
#390000
1!
17
18
0*
0h
0g
1?
0;
1A
09
1O
0B
1D
1@
11
02
1)
0(
0D
0@
1<
1B
1`
1R
1C
0V
1V
0C
1S
1[
0X
1X
0[
1T
#400000
0!
07
08
1*
#410000
1!
17
18
0*
1h
1d
0`
1]
1\
0R
0?
1;
0A
19
0_
1Q
0O
1N
1M
01
15
0)
1%
1b
1_
0N
1D
1@
0<
0B
1R
0Z
0b
1Z
0V
1C
1[
0X
#420000
0!
07
08
1*
#430000
1!
17
18
0*
0h
1g
0f
1?
0;
1A
09
1B
0D
0@
0W
0E
1V
11
12
03
1)
1(
0'
1@
1<
0G
0B
0C
1E
0V
1X
1P
1F
1C
1W
0[
0P
0F
0X
0Q
1J
1[
1Q
0J
0R
1K
1R
0K
0S
1S
0T
1T
#440000
0!
07
08
1*
#450000
1!
17
18
0*
1h
0]
0?
1;
0A
19
01
0)
0@
0<
1G
1B
0C
0W
0[
#460000
0#
0!
0:
07
08
1*
0R
1C
0S
1[
#470000
1!
17
18
0*
0h
1]
1?
0;
1A
09
11
1)
1@
1<
0G
0B
0C
1W
0[
1X
#480000
0!
07
08
1*
#490000
1!
17
18
0*
1h
0g
1f
0?
1;
0A
19
1G
1B
0@
1H
0W
1V
01
02
13
0)
0(
1'
1D
1@
0<
0B
0H
1W
1C
1I
0X
0V
0C
0I
1X
1[
1J
0[
0J
1K
0K
#500000
0!
07
08
1*
#510000
1!
17
18
0*
0h
0\
1?
0;
1A
09
11
1)
0D
0@
1<
1B
1V
1C
1[
#520000
0!
07
08
1*
#530000
1#
1!
1:
17
18
0*
0_
0T
1R
1N
0C
0[
1S
1b
0Z
1T
1h
1g
0?
1;
0A
19
1[
0G
0B
1@
01
12
0)
1(
0@
0<
1G
1B
1H
0W
1C
0C
0H
1W
1I
0I
#540000
0!
07
08
1*
#550000
1!
17
18
0*
1c
1a
16
1$
#560000
0!
07
08
1*
#570000
1!
17
18
0*
#580000
0!
07
08
1*
#590000
1!
17
18
0*
#600000
0#
0!
0:
07
08
1*
1_
0R
0N
1C
0[
0S
1Z
1[
#610000
1!
17
18
0*
0h
1?
0;
1A
09
11
1)
1@
1<
0G
0B
0C
1H
0W
0[
1I
0X
1J
1K
#620000
0!
07
08
1*
#630000
1!
17
18
0*
1h
0g
0f
1e
0]
0?
1;
0A
19
1G
1B
0@
0H
1W
0V
1^
1U
0L
0I
1F
01
02
03
14
0)
0(
0'
1&
0^
1D
1@
0<
0B
0W
1C
1L
1I
1X
0_
0Z
1S
0M
0J
1_
1Z
0S
0E
1V
0C
0X
1M
1J
0F
#640000
0!
07
08
1*
#650000
1!
17
18
0*
0h
1?
0;
1A
09
11
1)
0D
0@
1<
1B
1E
0V
1C
1F
1[
#660000
0!
07
08
1*
#670000
1!
17
18
0*
1h
1g
1Y
0?
1;
0A
19
0G
0B
1@
01
12
0)
1(
0Z
0@
0<
1G
1B
1W
0C
0[
0T
0K
1C
0W
1X
0X
#680000
0!
07
08
1*
#690000
1!
17
18
0*
0h
0g
0d
0e
1\
0Y
1?
0;
1A
09
0B
1D
1@
0U
0Q
0M
0I
0F
11
02
05
04
1)
0(
0%
0&
1Z
0D
0@
1<
1B
0C
0E
1V
0J
1E
0V
1C
1P
1F
0P
0F
1[
1Q
0Q
#700000
0!
07
08
1*
#710000
1!
17
18
0*
1h
1g
0?
1;
0A
19
0G
0B
1@
01
12
0)
1(
0@
0<
1G
1B
1W
0C
1C
0W
1X
0[
1[
0X
#720000
0!
07
08
1*
#730000
1!
17
18
0*
0h
1?
0;
1A
09
11
1)
1@
1<
0G
0B
0C
1W
0[
1X
#740000
0!
07
08
1*
#750000
1!
17
18
0*
1h
0g
1f
0?
1;
0A
19
1O
1G
1B
0@
1H
0W
1V
01
02
13
0)
0(
1'
1D
1@
0<
0B
0H
1W
1C
1I
0X
0V
0C
0I
1X
1[
1J
0[
0J
1K
0K
#760000
0!
07
08
1*
#770000
1!
17
18
0*
0h
1`
0\
1?
0;
1A
09
11
1)
0D
0@
1<
1B
1V
1C
1[
#780000
0!
07
08
1*
#790000
1!
17
18
0*
1h
1g
0`
0?
1;
0A
19
0O
0G
0B
1@
01
12
0)
1(
0@
0<
1G
1B
1H
0W
0C
1C
0H
1W
1I
0X
0[
1[
0I
1X
1J
0J
1K
0K
#800000
0!
07
08
1*
#810000
1!
17
18
0*
0h
1?
0;
1A
09
11
1)
1@
1<
0G
0B
0C
1H
0W
0[
1I
0X
1J
1K
#820000
0!
07
08
1*
#830000
1!
17
18
0*
1h
0g
0f
1e
1]
0?
1;
0A
19
1G
1B
0@
0H
1W
0V
0L
0I
1F
01
02
03
14
0)
0(
0'
1&
1D
1@
0<
0B
0W
1C
1L
1I
1X
1M
0J
0E
1V
0C
0X
1[
0M
1J
1T
0K
0F
0[
0T
1K
#840000
0!
07
08
1*
#850000
1!
17
18
0*
0h
0]
1?
0;
1A
09
11
1)
0D
0@
1<
1B
1E
0V
1C
1F
1[
#860000
0!
07
08
1*
#870000
1!
17
18
0*
1h
1g
0?
1;
0A
19
0G
0B
1@
01
12
0)
1(
0@
0<
1G
1B
1W
0C
1C
0W
1X
0[
1[
0X
#880000
0!
07
08
1*
#890000
1!
17
18
0*
0h
1?
0;
1A
09
11
1)
1@
1<
0G
0B
0C
1W
0[
1X
#900000
0!
07
08
1*
#910000
1!
17
18
0*
1h
0g
1f
0?
1;
0A
19
1G
1B
0@
1H
0W
1V
01
02
13
0)
0(
1'
1D
1@
0<
0B
0H
1W
1C
0L
0I
0X
0V
0C
1L
1I
1X
1[
1M
0J
0[
0M
1J
1T
0K
0T
1K
#920000
0!
07
08
1*
#930000
1!
17
18
0*
0h
1?
0;
1A
09
11
1)
0D
0@
1<
1B
1V
1C
1[
#940000
0!
07
08
1*
#950000
1!
17
18
0*
1h
1g
0?
1;
0A
19
0G
0B
1@
01
12
0)
1(
0@
0<
1G
1B
1H
0W
0C
1C
0H
1W
0L
0I
0X
0[
1[
1L
1I
1X
1M
0J
0M
1J
1T
0K
0T
1K
#960000
0!
07
08
1*
#970000
1!
17
18
0*
0h
1?
0;
1A
09
11
1)
1@
1<
0G
0B
0C
1H
0W
0[
0L
0I
0X
1M
0J
1T
0K
#980000
0!
07
08
1*
#990000
1!
17
18
0*
1h
0g
0f
1d
0e
1\
0?
1;
0A
19
1G
1B
0@
0H
1W
0V
1Q
0M
1L
1I
0F
01
02
03
15
04
0)
0(
0'
1%
0&
1D
1@
0<
0B
0W
1C
0I
1X
0T
1M
1J
0E
1V
0C
0X
1[
0J
1T
1K
1P
1F
0[
0K
0Q
