vhdl/simulation/qsim/vhdl.msim.vcd
$comment
	File created using the following command:
		vcd file vhdl.msim.vcd -direction
$end
$date
	Thu Nov 02 21:48:42 2023
$end
$version
	ModelSim Version 10.1d
$end
$timescale
	1ps
$end
$scope module vhdl_vlg_vec_tst $end
$var reg 1 ! clk $end
$var reg 1 " rst $end
$var reg 1 # updown $end
$var wire 1 $ co1 $end
$var wire 1 % co2 $end
$var wire 1 & s [7] $end
$var wire 1 ' s [6] $end
$var wire 1 ( s [5] $end
$var wire 1 ) s [4] $end
$var wire 1 * s [3] $end
$var wire 1 + s [2] $end
$var wire 1 , s [1] $end
$var wire 1 - s [0] $end
$var wire 1 . sampler $end
$scope module i1 $end
$var wire 1 / gnd $end
$var wire 1 0 vcc $end
$var wire 1 1 unknown $end
$var tri1 1 2 devclrn $end
$var tri1 1 3 devpor $end
$var tri1 1 4 devoe $end
$var wire 1 5 updown~input_o $end
$var wire 1 6 s[0]~output_o $end
$var wire 1 7 s[1]~output_o $end
$var wire 1 8 s[2]~output_o $end
$var wire 1 9 s[3]~output_o $end
$var wire 1 : s[4]~output_o $end
$var wire 1 ; s[5]~output_o $end
$var wire 1 < s[6]~output_o $end
$var wire 1 = s[7]~output_o $end
$var wire 1 > co1~output_o $end
$var wire 1 ? co2~output_o $end
$var wire 1 @ clk~input_o $end
$var wire 1 A clk~inputclkctrl_outclk $end
$var wire 1 B u0|counter_4bit_inst1|reg[0]~4_combout $end
$var wire 1 C rst~input_o $end
$var wire 1 D rst~inputclkctrl_outclk $end
$var wire 1 E u0|counter_4bit_inst1|reg~0_combout $end
$var wire 1 F u0|counter_4bit_inst1|reg[2]~1_combout $end
$var wire 1 G u0|counter_4bit_inst1|reg[3]~2_combout $end
$var wire 1 H u0|counter_4bit_inst1|reg[3]~3_combout $end
$var wire 1 I u0|counter_4bit_inst1|c~0_combout $end
$var wire 1 J u0|counter_4bit_inst1|c~1_combout $end
$var wire 1 K u0|counter_4bit_inst1|c~q $end
$var wire 1 L u0|counter_4bit_inst1|c~clkctrl_outclk $end
$var wire 1 M u0|counter_4bit_inst2|reg[0]~3_combout $end
$var wire 1 N u0|counter_4bit_inst2|reg~0_combout $end
$var wire 1 O u0|counter_4bit_inst2|reg[2]~1_combout $end
$var wire 1 P u0|counter_4bit_inst2|c~1_combout $end
$var wire 1 Q u0|counter_4bit_inst2|c~0_combout $end
$var wire 1 R u0|counter_4bit_inst2|reg[3]~2_combout $end
$var wire 1 S u0|counter_4bit_inst2|c~2_combout $end
$var wire 1 T u0|counter_4bit_inst2|c~q $end
$var wire 1 U u0|counter_4bit_inst2|reg [3] $end
$var wire 1 V u0|counter_4bit_inst2|reg [2] $end
$var wire 1 W u0|counter_4bit_inst2|reg [1] $end
$var wire 1 X u0|counter_4bit_inst2|reg [0] $end
$var wire 1 Y u0|counter_4bit_inst1|reg [3] $end
$var wire 1 Z u0|counter_4bit_inst1|reg [2] $end
$var wire 1 [ u0|counter_4bit_inst1|reg [1] $end
$var wire 1 \ u0|counter_4bit_inst1|reg [0] $end
$upscope $end
$upscope $end
$enddefinitions $end
#0
$dumpvars
0!
1"
1#
0$
0%
0-
0,
0+
0*
0)
0(
0'
0&
x.
0/
10
x1
12
13
14
15
06
07
08
09
0:
0;
0<
0=
0>
0?
0@
0A
1B
1C
1D
0E
0F
1G
0H
1I
0J
0K
0L
1M
0N
0O
0P
0Q
0R
0S
0T
0X
0W
0V
0U
0\
0[
0Z
0Y
$end
#10000
1!
1@
1A
0.
1\
1E
0B
16
1-
#20000
0!
0@
0A
1.
#30000
1!
1@
1A
0.
1[
0\
0I
1B
17
06
1,
0-
#40000
0!
0@
0A
1.
#50000
1!
1@
1A
0.
1\
0G
1F
0E
0B
16
1-
#60000
0!
0@
0A
1.
#70000
1!
1@
1A
0.
1Z
0[
0\
1I
1H
1J
1G
1B
18
07
06
1+
0,
0-
0J
0H
#80000
0!
0@
0A
1.
#90000
1!
1@
1A
0.
1\
1E
0B
16
1-
#100000
0!
0@
0A
1.
#110000
1!
1@
1A
0.
1[
0\
1B
17
06
1,
0-
#120000
0!
0@
0A
1.
#130000
1!
1@
1A
0.
1\
0G
0F
0E
0B
16
1-
1H
#140000
0!
0@
0A
1.
#150000
0#
1!
05
1@
1A
0.
1P
1O
1N
0I
0H
1G
1F
1E
1S
1R
1Y
0Z
0[
0\
1H
0G
1B
19
08
07
06
1*
0+
0,
0-
0H
#160000
0!
0@
0A
1.
#170000
1!
1@
1A
0.
0Y
1Z
1[
1\
1G
0B
09
18
17
16
0*
1+
1,
1-
#180000
0!
0@
0A
1.
#190000
1!
1@
1A
0.
0\
0E
1B
06
0-
#200000
0!
0@
0A
1.
#210000
1!
1@
1A
0.
0[
1\
1I
0B
07
16
0,
1-
#220000
0!
0@
0A
1.
#230000
1!
1@
1A
0.
0\
0G
0F
1E
1B
06
0-
#240000
0!
0@
0A
1.
#250000
1!
1@
1A
0.
0Z
1[
1\
0I
1H
1G
0B
08
17
16
0+
1,
1-
0H
#260000
0!
0@
0A
1.
#270000
1!
1@
1A
0.
0\
0E
1B
06
0-
#280000
0!
0@
0A
1.
#290000
1!
1@
1A
0.
0[
1\
0B
07
16
0,
1-
#300000
0!
0@
0A
1.
#310000
1#
1!
15
1@
1A
0.
0P
0O
0N
1I
1E
0S
0R
0\
0E
1B
06
0-
#320000
0!
0@
0A
1.
#330000
1!
1@
1A
0.
1\
1E
0B
16
1-
#340000
0!
0@
0A
1.
#350000
1!
1@
1A
0.
1[
0\
0I
1B
17
06
1,
0-
#360000
0!
0@
0A
1.
#370000
1!
1@
1A
0.
1\
0G
1F
0E
0B
16
1-
#380000
0!
0@
0A
1.
#390000
1!
1@
1A
0.
1Z
0[
0\
1I
1H
1J
1G
1B
18
07
06
1+
0,
0-
0J
0H
#400000
0!
0@
0A
1.
#410000
1!
1@
1A
0.
1\
1E
0B
16
1-
#420000
0!
0@
0A
1.
#430000
1!
1@
1A
0.
1[
0\
1B
17
06
1,
0-
#440000
0!
0@
0A
1.
#450000
1!
1@
1A
0.
1\
0G
0F
0E
0B
16
1-
1H
#460000
0!
0@
0A
1.
#470000
1!
1@
1A
0.
1Y
0Z
0[
0\
1G
1B
19
08
07
06
1*
0+
0,
0-
#480000
0!
0@
0A
1.
#490000
1!
1@
1A
0.
1\
1E
0B
16
1-
#500000
0!
0@
0A
1.
#510000
1!
1@
1A
0.
1[
0\
0I
1B
17
06
1,
0-
#520000
0!
0@
0A
1.
#530000
1!
1@
1A
0.
1\
0G
1F
0E
0B
16
1-
#540000
0!
0@
0A
1.
#550000
1!
1@
1A
0.
1Z
0[
0\
1I
0H
1G
1B
18
07
06
1+
0,
0-
1H
#560000
0!
0@
0A
1.
#570000
1!
1@
1A
0.
1\
1E
0B
16
1-
#580000
0!
0@
0A
1.
#590000
1!
1@
1A
0.
1[
0\
1B
17
06
1,
0-
#600000
0!
0@
0A
1.
#610000
1!
1@
1A
0.
1\
1J
0G
0F
0E
0B
16
1-
0H
#620000
0!
0@
0A
1.
#630000
1!
1@
1A
0.
1K
0Y
0Z
0[
0\
1L
0J
1G
1B
1>
09
08
07
06
1$
0*
0+
0,
0-
1X
1N
0M
1:
1)
#640000
0!
0@
0A
1.
#650000
1!
1@
1A
0.
0K
1\
0L
1E
0B
0>
16
0$
1-
#660000
0!
0@
0A
1.
#670000
1!
1@
1A
0.
1[
0\
0I
1B
17
06
1,
0-
#680000
0!
0@
0A
1.
#690000
1!
1@
1A
0.
1\
0G
1F
0E
0B
16
1-
#700000
0!
0@
0A
1.
#710000
1!
1@
1A
0.
1Z
0[
0\
1I
1H
1J
1G
1B
18
07
06
1+
0,
0-
0J
0H
#720000
0!
0@
0A
1.
#730000
1!
1@
1A
0.
1\
1E
0B
16
1-
#740000
0!
0@
0A
1.
#750000
1!
1@
1A
0.
1[
0\
1B
17
06
1,
0-
#760000
0!
0@
0A
1.
#770000
1!
1@
1A
0.
1\
0G
0F
0E
0B
16
1-
1H
#780000
0!
0@
0A
1.
#790000
1!
1@
1A
0.
1Y
0Z
0[
0\
1G
1B
19
08
07
06
1*
0+
0,
0-
#800000
0!
0@
0A
1.
#810000
1!
1@
1A
0.
1\
1E
0B
16
1-
#820000
0!
0@
0A
1.
#830000
1!
1@
1A
0.
1[
0\
0I
1B
17
06
1,
0-
#840000
0!
0@
0A
1.
#850000
1!
1@
1A
0.
1\
0G
1F
0E
0B
16
1-
#860000
0!
0@
0A
1.
#870000
1!
1@
1A
0.
1Z
0[
0\
1I
0H
1G
1B
18
07
06
1+
0,
0-
1H
#880000
0!
0@
0A
1.
#890000
1!
1@
1A
0.
1\
1E
0B
16
1-
#900000
0!
0@
0A
1.
#910000
1!
1@
1A
0.
1[
0\
1B
17
06
1,
0-
#920000
0!
0@
0A
1.
#930000
1!
1@
1A
0.
1\
1J
0G
0F
0E
0B
16
1-
0H
#940000
0!
0@
0A
1.
#950000
1!
1@
1A
0.
1K
0Y
0Z
0[
0\
1L
0J
1G
1B
1>
09
08
07
06
1$
0*
0+
0,
0-
1W
0X
1M
1;
0:
1(
0)
#960000
0!
0@
0A
1.
#970000
1!
1@
1A
0.
0K
1\
0L
1E
0B
0>
16
0$
1-
#980000
0!
0@
0A
1.
#990000
1!
1@
1A
0.
1[
0\
0I
1B
17
06
1,
0-
