vhdl/simulation/qsim/vhdl.msim.vcd
$comment
	File created using the following command:
		vcd file vhdl.msim.vcd -direction
$end
$date
	Thu Nov 09 03:53:16 2023
$end
$version
	ModelSim Version 10.1d
$end
$timescale
	1ps
$end
$scope module vhdl_vlg_vec_tst $end
$var reg 1 ! clk $end
$var reg 4 " gray_input [3:0] $end
$var reg 1 # rst $end
$var wire 1 $ binary_output [3] $end
$var wire 1 % binary_output [2] $end
$var wire 1 & binary_output [1] $end
$var wire 1 ' binary_output [0] $end
$var wire 1 ( binary_outputp [3] $end
$var wire 1 ) binary_outputp [2] $end
$var wire 1 * binary_outputp [1] $end
$var wire 1 + binary_outputp [0] $end
$var wire 1 , sampler $end
$scope module i1 $end
$var wire 1 - gnd $end
$var wire 1 . vcc $end
$var wire 1 / unknown $end
$var tri1 1 0 devclrn $end
$var tri1 1 1 devpor $end
$var tri1 1 2 devoe $end
$var wire 1 3 rst~input_o $end
$var wire 1 4 binary_output[0]~output_o $end
$var wire 1 5 binary_output[1]~output_o $end
$var wire 1 6 binary_output[2]~output_o $end
$var wire 1 7 binary_output[3]~output_o $end
$var wire 1 8 binary_outputp[0]~output_o $end
$var wire 1 9 binary_outputp[1]~output_o $end
$var wire 1 : binary_outputp[2]~output_o $end
$var wire 1 ; binary_outputp[3]~output_o $end
$var wire 1 < clk~input_o $end
$var wire 1 = clk~inputclkctrl_outclk $end
$var wire 1 > gray_input[0]~input_o $end
$var wire 1 ? gray_input[1]~input_o $end
$var wire 1 @ u0|binary~0_combout $end
$var wire 1 A gray_input[2]~input_o $end
$var wire 1 B u0|binary~1_combout $end
$var wire 1 C gray_input[3]~input_o $end
$var wire 1 D u0|binary~2_combout $end
$var wire 1 E u0|binaryp[0]~feeder_combout $end
$var wire 1 F u0|binaryp[1]~feeder_combout $end
$var wire 1 G u0|binaryp[2]~feeder_combout $end
$var wire 1 H u0|binary [3] $end
$var wire 1 I u0|binary [2] $end
$var wire 1 J u0|binary [1] $end
$var wire 1 K u0|binary [0] $end
$var wire 1 L u0|binaryp [3] $end
$var wire 1 M u0|binaryp [2] $end
$var wire 1 N u0|binaryp [1] $end
$var wire 1 O u0|binaryp [0] $end
$upscope $end
$upscope $end
$enddefinitions $end
#0
$dumpvars
0!
b110 "
0#
0'
0&
0%
0$
0+
0*
0)
0(
x,
0-
1.
x/
10
11
12
03
04
05
06
07
08
09
0:
0;
0<
0=
0>
1?
1@
1A
0B
0C
1D
1E
0F
1G
0K
0J
0I
zH
0O
0N
0M
zL
$end
#10000
1!
1<
1=
0,
1M
1O
1I
1K
1:
18
16
14
1)
1+
1%
1'
#20000
0!
0<
0=
1,
#30000
1!
1<
1=
0,
#40000
0!
0<
0=
1,
#50000
1!
1<
1=
0,
#60000
0!
0<
0=
1,
#70000
1!
1<
1=
0,
#80000
0!
0<
0=
1,
#90000
1!
1<
1=
0,
#100000
0!
0<
0=
1,
#110000
1!
1<
1=
0,
#120000
0!
0<
0=
1,
#130000
b10 "
b0 "
1!
0?
0A
1<
1=
0,
0@
0D
0E
0G
#140000
0!
0<
0=
1,
#150000
1!
1<
1=
0,
0M
0O
0I
0K
0:
08
06
04
0)
0+
0%
0'
#160000
0!
0<
0=
1,
#170000
1!
1<
1=
0,
#180000
0!
0<
0=
1,
#190000
1!
1<
1=
0,
#200000
0!
0<
0=
1,
#210000
1!
1<
1=
0,
#220000
0!
0<
0=
1,
#230000
1!
1<
1=
0,
#240000
b1 "
b11 "
0!
1>
1?
0<
0=
1,
1B
1F
#250000
1!
1<
1=
0,
1N
1J
19
15
1*
1&
#260000
0!
0<
0=
1,
#270000
1!
1<
1=
0,
#280000
0!
0<
0=
1,
#290000
1!
1<
1=
0,
#300000
b10 "
b0 "
0!
0>
0?
0<
0=
1,
0B
0F
#310000
1!
1<
1=
0,
0N
0J
09
05
0*
0&
#320000
0!
0<
0=
1,
#330000
1!
1<
1=
0,
#340000
0!
0<
0=
1,
#350000
1!
1<
1=
0,
#360000
0!
0<
0=
1,
#370000
1!
1<
1=
0,
#380000
0!
0<
0=
1,
#390000
1!
1<
1=
0,
#400000
0!
0<
0=
1,
#410000
1!
1<
1=
0,
#420000
0!
0<
0=
1,
#430000
1!
1<
1=
0,
#440000
0!
0<
0=
1,
#450000
1!
1<
1=
0,
#460000
0!
0<
0=
1,
#470000
1!
1<
1=
0,
#480000
0!
0<
0=
1,
#490000
1!
1<
1=
0,
#500000
0!
0<
0=
1,
#510000
1!
1<
1=
0,
#520000
0!
0<
0=
1,
#530000
1!
1<
1=
0,
#540000
0!
0<
0=
1,
#550000
1!
1<
1=
0,
#560000
0!
0<
0=
1,
#570000
1!
1<
1=
0,
#580000
0!
0<
0=
1,
#590000
1!
1<
1=
0,
#600000
0!
0<
0=
1,
#610000
1!
1<
1=
0,
#620000
0!
0<
0=
1,
#630000
1!
1<
1=
0,
#640000
0!
0<
0=
1,
#650000
1!
1<
1=
0,
#660000
0!
0<
0=
1,
#670000
1!
1<
1=
0,
#680000
0!
0<
0=
1,
#690000
1!
1<
1=
0,
#700000
0!
0<
0=
1,
#710000
1!
1<
1=
0,
#720000
0!
0<
0=
1,
#730000
1!
1<
1=
0,
#740000
0!
0<
0=
1,
#750000
1!
1<
1=
0,
#760000
0!
0<
0=
1,
#770000
1!
1<
1=
0,
#780000
0!
0<
0=
1,
#790000
1!
1<
1=
0,
#800000
0!
0<
0=
1,
#810000
1!
1<
1=
0,
#820000
0!
0<
0=
1,
#830000
1!
1<
1=
0,
#840000
0!
0<
0=
1,
#850000
1!
1<
1=
0,
#860000
0!
0<
0=
1,
#870000
1!
1<
1=
0,
#880000
0!
0<
0=
1,
#890000
1!
1<
1=
0,
#900000
0!
0<
0=
1,
#910000
1!
1<
1=
0,
#920000
0!
0<
0=
1,
#930000
1!
1<
1=
0,
#940000
0!
0<
0=
1,
#950000
1!
1<
1=
0,
#960000
0!
0<
0=
1,
#970000
1!
1<
1=
0,
#980000
0!
0<
0=
1,
#990000
1!
1<
1=
0,
